{
  "project_info": {
    "project_number": "958572258261",
    "firebase_url": "https://mikhgrigplanner.firebaseio.com",
    "project_id": "mikhgrigplanner",
    "storage_bucket": "mikhgrigplanner.appspot.com"
  },
  "client": [
    {
      "client_info": {
        "mobilesdk_app_id": "1:958572258261:android:2748ca42a1df354880535c",
        "android_client_info": {
          "package_name": "com.cmu.myapplication"
        }
      },
      "oauth_client": [
        {
          "client_id": "958572258261-b0h8qb70275pvc1ot62nr3cpjfoeu98f.apps.googleusercontent.com",
          "client_type": 3
        }
      ],
      "api_key": [
        {
          "current_key": "AIzaSyD5Hs2GFkYt0nguJSXcWenDTpJEfaSWbEY"
        }
      ],
      "services": {
        "appinvite_service": {
          "other_platform_oauth_client": [
            {
              "client_id": "958572258261-b0h8qb70275pvc1ot62nr3cpjfoeu98f.apps.googleusercontent.com",
              "client_type": 3
            }
          ]
        }
      }
    }
  ],
  "configuration_version": "1"
}